{
  "type": "hyperledger-fabric",
  "channelId": "devb11946ed-5fa2-482d-9a1e-249816b5b754claim-channel",
  "serviceUrl": "https://hyperledger-fabric.cfapps.us10.hana.ondemand.com/api/v1",
  "documentationUrl": "https://help.sap.com/viewer/p/HYPERLEDGER_FABRIC",
  "oAuth": {
    "clientId": "sb-297b4ab9-587c-408a-943c-2f91023f6b7d!b1039|na-3a01f1e2-bc33-4e12-86a2-ffffaea79918!b33",
    "clientSecret": "hFzVYjXlsqt5thovJ/kDtm1N9Io=",
    "url": "https://pdl.authentication.us10.hana.ondemand.com",
    "identityZone": "pdl"
  }
}
