{
  "networkName": "fishNet",
  "entities": [
    {
      "name": "GoldFish",
      "stereotype": "Asset",
      "attributes": [
        {
          "name": "ID"
        },
        {
          "name": "BirthDate"
        }
      ]
    },
    {
      "name": "Owner",
      "stereotype": "Participant",
      "attributes": [
        {
          "name": "ID"
        },
        {
          "name": "FirstName"
        },
        {
          "name": "LastName"
        }
      ]
    }
  ]
}