{
  "networkName": "financeNet",
  "entities": [
    {
      "name": "Invoice",
      "stereotype": "Asset",
      "attributes": [
        {
          "name": "ID"
        },
        {
          "name": "Status"
        },
        {
          "name": "PaymentDate"
        },
        {
          "name": "GrossAmount"
        },
        {
          "name": "DiscountAmount"
        },
        {
          "name": "TaxAmount"
        }
      ]
    },
    {
      "name": "Supplier",
      "stereotype": "Participant",
      "attributes": [
        {
          "name": "ID"
        },
        {
          "name": "Name"
        },
        {
          "name": "LocationLatitude"
        },
        {
          "name": "LocationLongitude"
        }
      ]
    }
  ]
}