{
  "version": "2.4.6",
  "objects": [
    {
      "type": "group",
      "version": "2.4.6",
      "originX": "left",
      "originY": "top",
      "left": 544,
      "top": 170,
      "width": 150,
      "height": 200,
      "fill": "rgb(0,0,0)",
      "stroke": null,
      "strokeWidth": 0,
      "strokeDashArray": null,
      "strokeLineCap": "butt",
      "strokeDashOffset": 0,
      "strokeLineJoin": "miter",
      "strokeMiterLimit": 4,
      "scaleX": 1,
      "scaleY": 1,
      "angle": 0,
      "flipX": false,
      "flipY": false,
      "opacity": 1,
      "shadow": null,
      "visible": true,
      "clipTo": null,
      "backgroundColor": "",
      "fillRule": "nonzero",
      "paintFirst": "fill",
      "globalCompositeOperation": "source-over",
      "transformMatrix": null,
      "skewX": 0,
      "skewY": 0,
      "objects": [
        {
          "type": "rect",
          "version": "2.4.6",
          "originX": "left",
          "originY": "top",
          "left": -75.5,
          "top": -100.5,
          "width": 150,
          "height": 200,
          "fill": "#c6f6af",
          "stroke": "#000",
          "strokeWidth": 1,
          "strokeDashArray": null,
          "strokeLineCap": "butt",
          "strokeDashOffset": 0,
          "strokeLineJoin": "miter",
          "strokeMiterLimit": 4,
          "scaleX": 1,
          "scaleY": 1,
          "angle": 0,
          "flipX": false,
          "flipY": false,
          "opacity": 0.2,
          "shadow": null,
          "visible": true,
          "clipTo": null,
          "backgroundColor": "",
          "fillRule": "nonzero",
          "paintFirst": "fill",
          "globalCompositeOperation": "source-over",
          "transformMatrix": null,
          "skewX": 0,
          "skewY": 0,
          "rx": 0,
          "ry": 0
        },
        {
          "type": "i-text",
          "version": "2.4.6",
          "originX": "left",
          "originY": "top",
          "left": -55.5,
          "top": -80.5,
          "width": 67.72,
          "height": 31.64,
          "fill": "rgb(0,0,0)",
          "stroke": null,
          "strokeWidth": 1,
          "strokeDashArray": null,
          "strokeLineCap": "butt",
          "strokeDashOffset": 0,
          "strokeLineJoin": "miter",
          "strokeMiterLimit": 4,
          "scaleX": 1,
          "scaleY": 1,
          "angle": 0,
          "flipX": false,
          "flipY": false,
          "opacity": 1,
          "shadow": null,
          "visible": true,
          "clipTo": null,
          "backgroundColor": "",
          "fillRule": "nonzero",
          "paintFirst": "fill",
          "globalCompositeOperation": "source-over",
          "transformMatrix": null,
          "skewX": 0,
          "skewY": 0,
          "text": "<<Asset>>\nInvoice",
          "fontSize": "14",
          "fontWeight": "normal",
          "fontFamily": "arial",
          "fontStyle": "normal",
          "lineHeight": 1,
          "underline": false,
          "overline": false,
          "linethrough": false,
          "textAlign": "center",
          "textBackgroundColor": "",
          "charSpacing": 0,
          "styles": {}
        },
        {
          "type": "line",
          "version": "2.4.6",
          "originX": "left",
          "originY": "top",
          "left": -75.5,
          "top": -30.5,
          "width": 150,
          "height": 0,
          "fill": "rgb(0,0,0)",
          "stroke": "gray",
          "strokeWidth": 1,
          "strokeDashArray": null,
          "strokeLineCap": "butt",
          "strokeDashOffset": 0,
          "strokeLineJoin": "miter",
          "strokeMiterLimit": 4,
          "scaleX": 1,
          "scaleY": 1,
          "angle": 0,
          "flipX": false,
          "flipY": false,
          "opacity": 1,
          "shadow": null,
          "visible": true,
          "clipTo": null,
          "backgroundColor": "",
          "fillRule": "nonzero",
          "paintFirst": "fill",
          "globalCompositeOperation": "source-over",
          "transformMatrix": null,
          "skewX": 0,
          "skewY": 0,
          "x1": -75,
          "x2": 75,
          "y1": 0,
          "y2": 0
        },
        {
          "type": "i-text",
          "version": "2.4.6",
          "originX": "left",
          "originY": "top",
          "left": -62.3,
          "top": -20.5,
          "width": 102.72,
          "height": 94.92,
          "fill": "rgb(0,0,0)",
          "stroke": null,
          "strokeWidth": 1,
          "strokeDashArray": null,
          "strokeLineCap": "butt",
          "strokeDashOffset": 0,
          "strokeLineJoin": "miter",
          "strokeMiterLimit": 4,
          "scaleX": 1,
          "scaleY": 1,
          "angle": 0,
          "flipX": false,
          "flipY": false,
          "opacity": 1,
          "shadow": null,
          "visible": true,
          "clipTo": null,
          "backgroundColor": "",
          "fillRule": "nonzero",
          "paintFirst": "fill",
          "globalCompositeOperation": "source-over",
          "transformMatrix": null,
          "skewX": 0,
          "skewY": 0,
          "text": "ID\nStatus\nPaymentDate\nGrossAmount\nDiscountAmount\nTaxAmount",
          "fontSize": "14",
          "fontWeight": "normal",
          "fontFamily": "arial",
          "fontStyle": "normal",
          "lineHeight": 1,
          "underline": false,
          "overline": false,
          "linethrough": false,
          "textAlign": "left",
          "textBackgroundColor": "",
          "charSpacing": 0,
          "styles": {}
        }
      ]
    },
    {
      "type": "group",
      "version": "2.4.6",
      "originX": "left",
      "originY": "top",
      "left": 100,
      "top": 100,
      "width": 150,
      "height": 200,
      "fill": "rgb(0,0,0)",
      "stroke": null,
      "strokeWidth": 0,
      "strokeDashArray": null,
      "strokeLineCap": "butt",
      "strokeDashOffset": 0,
      "strokeLineJoin": "miter",
      "strokeMiterLimit": 4,
      "scaleX": 1,
      "scaleY": 1,
      "angle": 0,
      "flipX": false,
      "flipY": false,
      "opacity": 1,
      "shadow": null,
      "visible": true,
      "clipTo": null,
      "backgroundColor": "",
      "fillRule": "nonzero",
      "paintFirst": "fill",
      "globalCompositeOperation": "source-over",
      "transformMatrix": null,
      "skewX": 0,
      "skewY": 0,
      "objects": [
        {
          "type": "rect",
          "version": "2.4.6",
          "originX": "left",
          "originY": "top",
          "left": -75.5,
          "top": -100.5,
          "width": 150,
          "height": 200,
          "fill": "#aea9eb",
          "stroke": "#000",
          "strokeWidth": 1,
          "strokeDashArray": null,
          "strokeLineCap": "butt",
          "strokeDashOffset": 0,
          "strokeLineJoin": "miter",
          "strokeMiterLimit": 4,
          "scaleX": 1,
          "scaleY": 1,
          "angle": 0,
          "flipX": false,
          "flipY": false,
          "opacity": 0.2,
          "shadow": null,
          "visible": true,
          "clipTo": null,
          "backgroundColor": "",
          "fillRule": "nonzero",
          "paintFirst": "fill",
          "globalCompositeOperation": "source-over",
          "transformMatrix": null,
          "skewX": 0,
          "skewY": 0,
          "rx": 0,
          "ry": 0
        },
        {
          "type": "i-text",
          "version": "2.4.6",
          "originX": "left",
          "originY": "top",
          "left": -55.5,
          "top": -80.5,
          "width": 98.85,
          "height": 31.64,
          "fill": "rgb(0,0,0)",
          "stroke": null,
          "strokeWidth": 1,
          "strokeDashArray": null,
          "strokeLineCap": "butt",
          "strokeDashOffset": 0,
          "strokeLineJoin": "miter",
          "strokeMiterLimit": 4,
          "scaleX": 1,
          "scaleY": 1,
          "angle": 0,
          "flipX": false,
          "flipY": false,
          "opacity": 1,
          "shadow": null,
          "visible": true,
          "clipTo": null,
          "backgroundColor": "",
          "fillRule": "nonzero",
          "paintFirst": "fill",
          "globalCompositeOperation": "source-over",
          "transformMatrix": null,
          "skewX": 0,
          "skewY": 0,
          "text": "<<Participant>>\nSupplier",
          "fontSize": "14",
          "fontWeight": "normal",
          "fontFamily": "arial",
          "fontStyle": "normal",
          "lineHeight": 1,
          "underline": false,
          "overline": false,
          "linethrough": false,
          "textAlign": "center",
          "textBackgroundColor": "",
          "charSpacing": 0,
          "styles": {}
        },
        {
          "type": "line",
          "version": "2.4.6",
          "originX": "left",
          "originY": "top",
          "left": -75.5,
          "top": -30.5,
          "width": 150,
          "height": 0,
          "fill": "rgb(0,0,0)",
          "stroke": "gray",
          "strokeWidth": 1,
          "strokeDashArray": null,
          "strokeLineCap": "butt",
          "strokeDashOffset": 0,
          "strokeLineJoin": "miter",
          "strokeMiterLimit": 4,
          "scaleX": 1,
          "scaleY": 1,
          "angle": 0,
          "flipX": false,
          "flipY": false,
          "opacity": 1,
          "shadow": null,
          "visible": true,
          "clipTo": null,
          "backgroundColor": "",
          "fillRule": "nonzero",
          "paintFirst": "fill",
          "globalCompositeOperation": "source-over",
          "transformMatrix": null,
          "skewX": 0,
          "skewY": 0,
          "x1": -75,
          "x2": 75,
          "y1": 0,
          "y2": 0
        },
        {
          "type": "i-text",
          "version": "2.4.6",
          "originX": "left",
          "originY": "top",
          "left": -62.3,
          "top": -20.5,
          "width": 114.43,
          "height": 63.28,
          "fill": "rgb(0,0,0)",
          "stroke": null,
          "strokeWidth": 1,
          "strokeDashArray": null,
          "strokeLineCap": "butt",
          "strokeDashOffset": 0,
          "strokeLineJoin": "miter",
          "strokeMiterLimit": 4,
          "scaleX": 1,
          "scaleY": 1,
          "angle": 0,
          "flipX": false,
          "flipY": false,
          "opacity": 1,
          "shadow": null,
          "visible": true,
          "clipTo": null,
          "backgroundColor": "",
          "fillRule": "nonzero",
          "paintFirst": "fill",
          "globalCompositeOperation": "source-over",
          "transformMatrix": null,
          "skewX": 0,
          "skewY": 0,
          "text": "ID\nName\nLocationLatitude\nLocationLongitude",
          "fontSize": "14",
          "fontWeight": "normal",
          "fontFamily": "arial",
          "fontStyle": "normal",
          "lineHeight": 1,
          "underline": false,
          "overline": false,
          "linethrough": false,
          "textAlign": "left",
          "textBackgroundColor": "",
          "charSpacing": 0,
          "styles": {}
        }
      ]
    }
  ]
}